ProSportsDraftDataVignette
…
nhl_base_data <- nhl_data_base()
head(nhl_base_data)
#> # A tibble: 6 × 3
#>   name          round  rank
#>   <chr>         <dbl> <dbl>
#> 1 Jack Hughes       1     1
#> 2 Kaapo Kakko       1     2
#> 3 Kirby Dach        1     3
#> 4 Bowen Byram       1     4
#> 5 Alex Turcotte     1     5
#> 6 Moritz Seider     1     6

nhl_data_espn()
#> # A tibble: 190 × 9
#>    name    year date_of_birth   age current_team league scouting_report team_fit
#>    <chr>  <dbl> <chr>         <dbl> <chr>        <chr>  <chr>           <chr>   
#>  1 Jack …  2019 <NA>             18 USA U18      NTDP   Hughes has suc… <NA>    
#>  2 Kaapo…  2019 <NA>             18 TPS          Finla… Kakko has a gr… <NA>    
#>  3 Kirby…  2019 <NA>             18 Saskatoon    WHL    Dach has size,… <NA>    
#>  4 Bowen…  2019 <NA>             18 Vancouver    WHL    There is no de… <NA>    
#>  5 Alex …  2019 <NA>             18 USA U18      NTDP   He is a smart,… <NA>    
#>  6 Morit…  2019 <NA>             18 Mannheim     Germa… One of the mos… <NA>    
#>  7 Dylan…  2019 <NA>             18 Lethbridge   WHL    A strong skate… <NA>    
#>  8 Phili…  2019 <NA>             17 AIK          Swede… One of the bes… <NA>    
#>  9 Trevo…  2019 <NA>             18 USA U18      NTDP   With elite vis… <NA>    
#> 10 Vasil…  2019 <NA>             17 Neva St. Pe… Russi… He remains und… <NA>    
#> # ℹ 180 more rows
#> # ℹ 1 more variable: likely_to_play <chr>
nhl_data_nhl.com()
#> # A tibble: 191 × 8
#>    name            year position city      team  league scouting_report analysis
#>    <chr>          <dbl> <chr>    <chr>     <chr> <chr>  <chr>           <chr>   
#>  1 <NA>              NA <NA>     <NA>      <NA>  <NA>   "is the highes… "In bit…
#>  2 <NA>              NA <NA>     <NA>      <NA>  <NA>   "Dahlin (6-foo… "The Sa…
#>  3 Jack Hughes     2019 <NA>     <NA>      New … <NA>   "The first pla… "The De…
#>  4 Kaapo Kakko     2019 RW       TPS       New … FIN    "The left-hand… "Kakko …
#>  5 Kirby Dach      2019 <NA>     <NA>      Chic… <NA>   "Dach, who con… "The ce…
#>  6 Bowen Byram     2019 <NA>     <NA>      Colo… <NA>   "Byram (6-1, 1… "The Av…
#>  7 Alex Turcotte   2019 C        USA U-18  Los … USHL   "Turcotte (5-1… "The Ki…
#>  8 Moritz Seider   2019 D        Mannheim  Detr… GER    "Seider (6-3, … "The fi…
#>  9 Dylan Cozens    2019 C        Lethbrid… Buff… WHL    "Cozens (6-3, … "With J…
#> 10 Philip Broberg  2019 D        AIK       Edmo… SWE-2  "The left-shot… "The Oi…
#> # ℹ 181 more rows
…
